View SPS project 'config/tabs.csv' information — spsTabInfo • systemPipeShiny
…
#> [SPS-INFO] 2021-09-18 02:42:33 Now check the tab info in tabs.csv 
#> [SPS-INFO] 2021-09-18 02:42:33 tab.csv info check pass
#> # A tibble: 11 × 8
#>   tab_id       display_label type  type_sub image displayed tab_file_name plugin
#>   <chr>        <chr>         <chr> <chr>    <chr> <chr>     <chr>         <chr> 
#> 1 core_about   About this A… core  ""       ""    1         No file for … core  
#> 2 core_canvas  Canvas        core  ""       ""    1         No file for … core  
#> 3 core_welcome Home          core  ""       ""    1         No file for … core  
#> 4 core_right   Internal use… core  ""       ""    1         No file for … core  
#> 5 core_top     Top push bars core  ""       ""    1         No file for … core  
#> # … with 6 more rows
…
